…
  # mutation
  nextInd.gen <- tibble(
    chrom = lapply(chrom, mutation, mutate.prob = mutate.prob))

  population <- bind_rows(nextInd.elite, nextInd.gen)
  population$fits  <- sapply(population$chrom, fitness, .cities)
  
  return(population %>% arrange(fits))
}
# example
(pop <- initPopulation(30, cities))
```

```
## # A tibble: 30 x 2
##    chrom       fits
##    <list>     <dbl>
##  1 <dbl [10]>  4.65
##  2 <dbl [10]>  4.77
##  3 <dbl [10]>  5.12
##  4 <dbl [10]>  5.16
##  5 <dbl [10]>  5.17
##  6 <dbl [10]>  5.17
##  7 <dbl [10]>  5.20
##  8 <dbl [10]>  5.38
##  9 <dbl [10]>  5.48
## 10 <dbl [10]>  5.50
## # ... with 20 more rows
```

```r
(pop.new <- alternate(pop, cities, elite.size = 3, mutate.prob = 0.8))
```

```
## # A tibble: 30 x 2
##    chrom       fits
##    <list>     <dbl>
##  1 <dbl [10]>  4.43
##  2 <dbl [10]>  4.54
##  3 <dbl [10]>  4.65
##  4 <dbl [10]>  4.72
##  5 <dbl [10]>  4.74
##  6 <dbl [10]>  4.76
##  7 <dbl [10]>  4.77
##  8 <dbl [10]>  5.11
##  9 <dbl [10]>  5.12
## 10 <dbl [10]>  5.24
## # ... with 20 more rows
```
…
